<svg xmlns="http://www.w3.org/2000/svg" width="35" height="67" viewBox="0 0 35 67">
  <text id="_2" data-name="2" transform="translate(0 56)" fill="#e0e0e0" font-size="60" font-family="Ubuntu-Bold, Ubuntu" font-weight="700"><tspan x="0" y="0">2</tspan></text>
</svg>
