<svg xmlns="http://www.w3.org/2000/svg" width="25" height="25" viewBox="0 0 25 25" fill="#707070" >
  <g id="Expand_more_" data-name="Expand more " transform="translate(24.75 -0.094) rotate(90)" >
    <rect id="Bounds" width="25" height="25" transform="translate(0.094 -0.25)" fill="none"/>
    <path id="Icon" d="M11.3,0l-4.9,4.9L1.492,0,0,1.492,6.394,7.886l6.394-6.394Z" transform="translate(5.9 8.659)"/>
  </g>
</svg>
