<svg xmlns="http://www.w3.org/2000/svg" width="42.199" height="41.101" viewBox="0 0 42.199 41.101">
  <g id="salad" transform="translate(0 0)">
    <path id="Trazado_138" data-name="Trazado 138" d="M42.2,18.656a.824.824,0,0,0-.824-.824h-1.6a3.418,3.418,0,0,0-1.552-4.642,3.424,3.424,0,0,0-.176-1.346l2.3-3.986a2.463,2.463,0,0,0-.8-3.511,2.515,2.515,0,0,0-3.484,1.038L33.53,9.778a3.423,3.423,0,0,0-.633.337,3.447,3.447,0,0,0-2.907-.444L33.3,3.944A2.57,2.57,0,0,0,32.5.316a2.513,2.513,0,0,0-3.486,1.155l-4.1,7.1a6,6,0,0,0-.545-.741,6.508,6.508,0,0,0-3.4-2.037.824.824,0,1,0-.383,1.6,4.64,4.64,0,0,1,3.4,3.086.824.824,0,0,0,.074.27,4.845,4.845,0,0,1,.108.64c-.06.035-.119.071-.176.11a3.414,3.414,0,0,0-5.326,3.075,3.373,3.373,0,0,0-.4.233c-.433-.829-.905-1.682-1.492-2.7A19.257,19.257,0,0,0,15.3,9.886a5.1,5.1,0,0,1,.265-.5.824.824,0,0,0-1.409-.855c-.016.026-.031.054-.047.081l-.1-.087a3.412,3.412,0,0,0-1.427-4.859A3.414,3.414,0,0,0,7.257.59,3.414,3.414,0,0,0,1.931,3.665a3.414,3.414,0,0,0,0,6.15,3.414,3.414,0,0,0,3.4,3.667l.09,0c.02.12.044.243.072.368a5.017,5.017,0,0,0-3.42,3.984H.824A.824.824,0,0,0,0,18.656a21.13,21.13,0,0,0,11.507,18.8A2.472,2.472,0,0,0,13.682,41.1H28.517a2.472,2.472,0,0,0,2.175-3.648A21.13,21.13,0,0,0,42.2,18.656ZM37.494,6.21a.866.866,0,0,1,1.232-.435c.162.094.655.461.2,1.259l-1.9,3.3A3.3,3.3,0,0,0,35.535,9.6Zm-5.208,5.541a.824.824,0,0,0,1.223,0A1.767,1.767,0,0,1,36.5,13.479a.825.825,0,0,0,.611,1.06,1.767,1.767,0,0,1,.444,3.293H31.248q0-.09,0-.182a3.436,3.436,0,0,0-1.931-3.075,3.431,3.431,0,0,0-.111-1.134.866.866,0,0,0-.027-.112,1.65,1.65,0,0,1,.909-1.921A1.775,1.775,0,0,1,32.286,11.752ZM30.441,2.3c.4-.7.9-.743,1.234-.552.369.213.572.721.193,1.376l-4.647,8.049a3.414,3.414,0,0,0-1.45-.253c-.021-.137-.044-.272-.073-.406ZM19.781,15.923a.824.824,0,0,0,.611-1.059,1.767,1.767,0,0,1,2.992-1.727.824.824,0,0,0,1.223,0A1.767,1.767,0,0,1,27.6,14.864a.824.824,0,0,0,.611,1.059A1.767,1.767,0,0,1,29.6,17.832H24.434l0-.01a.824.824,0,1,0-1.553-.553l-.2.563H18.4a1.767,1.767,0,0,1,1.385-1.909Zm-3.727-1.74-.977.564a.824.824,0,1,0,.824,1.428l.935-.54q.132.254.26.505a3.387,3.387,0,0,0-.358,1.51q0,.091,0,.182H9.158c-.193-.324-.388-.655-.581-.989a15.193,15.193,0,0,1-1.3-2.733l0-.013c-.634-1.928-.124-2.875.888-3.633l.043-.022a.832.832,0,0,0,.16-.124c.217-.149.453-.292.7-.436,1.31-.756,2.221-.937,3.047-.6.978.393,2.034,1.59,3.228,3.658C15.6,13.379,15.836,13.791,16.055,14.183ZM4.453,11.6a1.774,1.774,0,0,1-.8-2.071.824.824,0,0,0-.612-1.06,1.767,1.767,0,0,1,0-3.455.824.824,0,0,0,.611-1.059A1.767,1.767,0,0,1,6.645,2.226a.824.824,0,0,0,1.223,0A1.767,1.767,0,0,1,10.86,3.954a.824.824,0,0,0,.611,1.059,1.766,1.766,0,0,1,1.115,2.679,4.079,4.079,0,0,0-2.579-.031,4.365,4.365,0,0,1-.319-1.929.824.824,0,0,0-1.635-.21,5.972,5.972,0,0,0,.438,2.793c-.083.046-.165.092-.245.138S8.086,8.548,8,8.6A5.973,5.973,0,0,0,5.8,6.822a.824.824,0,1,0-.636,1.521A4.365,4.365,0,0,1,6.68,9.583a4.083,4.083,0,0,0-1.263,2.249A1.767,1.767,0,0,1,4.453,11.6Zm1.56,3.818A19.822,19.822,0,0,0,7.15,17.667l.1.165h-3.5A3.419,3.419,0,0,1,6.013,15.415ZM29.318,36.289a2.462,2.462,0,0,0-.8-.134.824.824,0,0,0,0,1.648.824.824,0,1,1,0,1.648H13.682a.824.824,0,0,1-.4-1.546l.007,0a.82.82,0,0,1,.39-.1h8.242a.824.824,0,0,0,0-1.648H13.682a2.462,2.462,0,0,0-.8.134A19.481,19.481,0,0,1,1.666,19.48H40.533A19.48,19.48,0,0,1,29.318,36.289Zm0,0" fill="#FFB800"/>
    <path id="Trazado_139" data-name="Trazado 139" d="M122.217,175.277l-.646.373a.824.824,0,1,0,.824,1.428l.646-.373a.824.824,0,1,0-.824-1.428Zm0,0" transform="translate(-111.173 -160.73)" fill="#FFB800"/>
    <path id="Trazado_140" data-name="Trazado 140" d="M126.474,130.972l-.836.483a.824.824,0,1,0,.824,1.428l.836-.483a.824.824,0,1,0-.824-1.428Zm0,0" transform="translate(-114.904 -120.077)" fill="#FFB800"/>
    <path id="Trazado_141" data-name="Trazado 141" d="M388.513,177.412a.824.824,0,0,0,1.117-.332l.643-1.187a.824.824,0,0,0-1.449-.785l-.643,1.187A.825.825,0,0,0,388.513,177.412Zm0,0" transform="translate(-356.095 -160.28)" fill="#FFB800"/>
    <path id="Trazado_142" data-name="Trazado 142" d="M200.716,274.6a7.864,7.864,0,0,0-9.631,9.631.825.825,0,0,0,.584.584,7.865,7.865,0,0,0,9.631-9.631A.824.824,0,0,0,200.716,274.6Zm-.8,2.55a6.248,6.248,0,0,1-.228,1.733h-1.505Zm-1.165-1.166-3,3v-2.267A6.26,6.26,0,0,1,198.751,275.988ZM194.1,278v2.636l-1.628,1.628A6.24,6.24,0,0,1,194.1,278Zm-.463,5.429,2.9-2.9h2.426a6.16,6.16,0,0,1-.861,1.081A6.236,6.236,0,0,1,193.635,283.434Zm0,0" transform="translate(-175.093 -251.728)" fill="#FFB800"/>
    <path id="Trazado_143" data-name="Trazado 143" d="M296.825,438.68h0a.824.824,0,1,0,.825.824A.824.824,0,0,0,296.824,438.68Zm0,0" transform="translate(-271.604 -402.524)" fill="#FFB800"/>
    <path id="Trazado_144" data-name="Trazado 144" d="M202.322,74.032a.824.824,0,1,0-.306-1.589h0a.824.824,0,0,0,.307,1.589Zm0,0" transform="translate(-184.889 -66.418)" fill="#FFB800"/>
  </g>
</svg>
