<svg xmlns="http://www.w3.org/2000/svg" width="17.884" height="17.867" viewBox="0 0 17.884 17.867">
  <g id="Grupo_115" data-name="Grupo 115" transform="translate(0)">
    <path id="Trazado_71" data-name="Trazado 71" d="M1020.773,61.616h9.413a1.435,1.435,0,0,0,.232.1,4.882,4.882,0,0,1,3.849,3.688q.076.274.15.548v9.3a.853.853,0,0,0-.09.181,4.948,4.948,0,0,1-5.025,4.046q-3.833.008-7.666,0a4.926,4.926,0,0,1-5.092-5.054c-.01-2.624-.021-5.248,0-7.872a4.717,4.717,0,0,1,2.753-4.405A11.8,11.8,0,0,1,1020.773,61.616Zm4.693,16.278h4.018a3.355,3.355,0,0,0,3.338-3.281c.026-2.677.032-5.355,0-8.032a3.317,3.317,0,0,0-3.4-3.374q-3.939-.027-7.879,0a3.326,3.326,0,0,0-3.412,3.461q-.007,3.857,0,7.715a3.351,3.351,0,0,0,3.529,3.511C1022.928,77.9,1024.2,77.894,1025.466,77.894Z" transform="translate(-1016.533 -61.616)"/>
    <path id="Trazado_72" data-name="Trazado 72" d="M1061.995,111.586a4.6,4.6,0,1,1,4.6-4.563A4.593,4.593,0,0,1,1061.995,111.586Zm-.023-1.585a3.011,3.011,0,1,0-3-3.091A3.025,3.025,0,0,0,1061.972,110Z" transform="translate(-1053.047 -98.057)"/>
    <path id="Trazado_73" data-name="Trazado 73" d="M1136.166,91.973A1.144,1.144,0,0,1,1135,90.856a1.163,1.163,0,0,1,1.139-1.2,1.183,1.183,0,0,1,1.169,1.181A1.159,1.159,0,0,1,1136.166,91.973Z" transform="translate(-1122.409 -86.674)"/>
  </g>
</svg>
