<svg id="Grupo_130" data-name="Grupo 130" xmlns="http://www.w3.org/2000/svg" width="27.79" height="27.764" viewBox="0 0 27.79 27.764">
  <path id="Trazado_71" data-name="Trazado 71" d="M1023.122,61.616h14.628a2.234,2.234,0,0,0,.361.152,7.586,7.586,0,0,1,5.98,5.731c.079.284.156.567.233.851V82.805a1.325,1.325,0,0,0-.139.282,7.689,7.689,0,0,1-7.808,6.287q-5.956.012-11.912,0a7.655,7.655,0,0,1-7.913-7.853c-.015-4.078-.032-8.156.006-12.233a7.33,7.33,0,0,1,4.278-6.845A18.32,18.32,0,0,1,1023.122,61.616Zm7.292,25.3h6.08c.055,0,.11,0,.164,0a5.213,5.213,0,0,0,5.186-5.1c.041-4.16.05-8.321,0-12.481a5.155,5.155,0,0,0-5.285-5.242q-6.121-.042-12.243,0a5.169,5.169,0,0,0-5.3,5.379q-.011,5.994,0,11.989a5.208,5.208,0,0,0,5.484,5.455C1026.47,86.919,1028.442,86.912,1030.414,86.911Z" transform="translate(-1016.533 -61.616)" fill="#fff"/>
  <path id="Trazado_72" data-name="Trazado 72" d="M1064.545,116.679a7.143,7.143,0,1,1,7.146-7.09A7.138,7.138,0,0,1,1064.545,116.679Zm-.035-2.462a4.68,4.68,0,1,0-4.656-4.8A4.7,4.7,0,0,0,1064.51,114.217Z" transform="translate(-1050.64 -95.656)" fill="#fff"/>
  <path id="Trazado_73" data-name="Trazado 73" d="M1136.809,93.258a1.777,1.777,0,0,1-1.8-1.736,1.807,1.807,0,0,1,1.77-1.868,1.838,1.838,0,0,1,1.817,1.834A1.8,1.8,0,0,1,1136.809,93.258Z" transform="translate(-1115.432 -85.022)" fill="#fff"/>
</svg>
