<svg xmlns="http://www.w3.org/2000/svg" width="165.153" height="38.753" viewBox="0 0 165.153 38.753">
  <g id="Grupo_265" data-name="Grupo 265" transform="translate(-187.59 -14.247)">
    <ellipse id="Elipse_35" data-name="Elipse 35" cx="4.866" cy="4.866" rx="4.866" ry="4.866" transform="translate(197.678 27.598)" fill="#fff"/>
    <path id="Trazado_115" data-name="Trazado 115" d="M315.365,219.548c-.611-4.278-5.681-6.077-7.28-10.492a7.006,7.006,0,0,1-.223-.682q-.014-.05-.026-.1a8.447,8.447,0,0,1-.226-1.978,7.22,7.22,0,0,1,7.2-7.032c.043,0,.086.006.129.007-.548-.258-5.379-2.4-9.888.026a10.28,10.28,0,0,0-4.6,12.7c2.21,5.524,10.495,12.7,10.127,14.914C310.578,226.913,316.1,224.7,315.365,219.548Z" transform="translate(-112.17 -173.913)" fill="#fff"/>
    <path id="Trazado_120" data-name="Trazado 120" d="M319.671,172.015a7.6,7.6,0,0,0-8.023,4.537,5.062,5.062,0,0,0-6.639-.942,7.757,7.757,0,0,0,7.014,4.568,7.8,7.8,0,0,0,.87-.052,7.673,7.673,0,0,0,6.8-7.622C319.7,172.339,319.681,172.177,319.671,172.015Z" transform="translate(-115.418 -157.697)" fill="#fff"/>
    <path id="Trazado_116" data-name="Trazado 116" d="M382.138,219.482a4.7,4.7,0,0,0,1.837-.254.978.978,0,0,0,.538-.981,1.2,1.2,0,0,0-.7-1,13.342,13.342,0,0,0-2.121-.967,21.577,21.577,0,0,1-2.011-.854,5.9,5.9,0,0,1-1.535-1.061,4.287,4.287,0,0,1-.982-1.472,5.445,5.445,0,0,1-.348-2.059,4.451,4.451,0,0,1,1.742-3.7,7.579,7.579,0,0,1,4.782-1.361,15.351,15.351,0,0,1,2.913.269,13.655,13.655,0,0,1,2.217.586l-.824,3.673a17.372,17.372,0,0,0-1.789-.507,9.744,9.744,0,0,0-2.169-.221q-2.217,0-2.216,1.234a1.272,1.272,0,0,0,.1.507,1.075,1.075,0,0,0,.38.427,5.175,5.175,0,0,0,.776.446q.49.241,1.251.527a19.368,19.368,0,0,1,2.564,1.133,6.134,6.134,0,0,1,1.6,1.206,3.735,3.735,0,0,1,.823,1.438,6.356,6.356,0,0,1,.236,1.832,4.221,4.221,0,0,1-1.852,3.728,9.239,9.239,0,0,1-5.24,1.264,14.795,14.795,0,0,1-5.731-1.013l.792-3.831a15.479,15.479,0,0,0,2.47.744A12.04,12.04,0,0,0,382.138,219.482Z" transform="translate(-162.283 -180.799)" fill="#fff"/>
    <path id="Trazado_117" data-name="Trazado 117" d="M420.554,206a10.928,10.928,0,0,1,3.483.475,5.425,5.425,0,0,1,2.232,1.362,5.014,5.014,0,0,1,1.187,2.153,10.624,10.624,0,0,1,.348,2.818v9.815q-1.014.222-2.818.523a27.122,27.122,0,0,1-4.369.3,13.874,13.874,0,0,1-2.929-.285,6.344,6.344,0,0,1-2.263-.935,4.263,4.263,0,0,1-1.457-1.694,5.834,5.834,0,0,1-.506-2.565,4.857,4.857,0,0,1,.586-2.47,4.507,4.507,0,0,1,1.567-1.614,7.078,7.078,0,0,1,2.248-.871,12.625,12.625,0,0,1,2.628-.269,14.971,14.971,0,0,1,1.631.079,7.365,7.365,0,0,1,1.156.206v-.443a2.612,2.612,0,0,0-.729-1.931,3.527,3.527,0,0,0-2.533-.728,16.165,16.165,0,0,0-2.375.174,10.194,10.194,0,0,0-2.027.491l-.6-3.8c.274-.084.618-.174,1.029-.269s.86-.179,1.346-.254,1-.137,1.536-.19S420,206,420.554,206Zm.379,13.805q.7,0,1.329-.032a9.123,9.123,0,0,0,1.014-.095V216.1q-.285-.063-.855-.127a9.53,9.53,0,0,0-1.045-.063,9.374,9.374,0,0,0-1.251.079,3.269,3.269,0,0,0-1.029.3,1.763,1.763,0,0,0-.7.6,1.673,1.673,0,0,0-.253.95,1.614,1.614,0,0,0,.743,1.535A4.106,4.106,0,0,0,420.933,219.8Z" transform="translate(-183.875 -180.931)" fill="#fff"/>
    <path id="Trazado_118" data-name="Trazado 118" d="M455.365,207.1a26.3,26.3,0,0,1,3.1-.648,25.5,25.5,0,0,1,3.99-.3,9.728,9.728,0,0,1,3.53.554,5.308,5.308,0,0,1,2.232,1.567,6.126,6.126,0,0,1,1.171,2.407,12.8,12.8,0,0,1,.348,3.1v9.4h-4.718v-8.834a6.358,6.358,0,0,0-.6-3.229,2.454,2.454,0,0,0-2.248-.95q-.507,0-1.077.048t-1.014.111v12.855h-4.717Z" transform="translate(-208.272 -181.021)" fill="#fff"/>
    <path id="Trazado_119" data-name="Trazado 119" d="M503.174,206.114a10.923,10.923,0,0,1,3.483.475,5.41,5.41,0,0,1,2.233,1.362,5.014,5.014,0,0,1,1.186,2.153,10.622,10.622,0,0,1,.348,2.818v9.815q-1.014.222-2.818.523a27.071,27.071,0,0,1-4.369.3,13.838,13.838,0,0,1-2.929-.286,6.357,6.357,0,0,1-2.264-.934,4.275,4.275,0,0,1-1.457-1.694,5.847,5.847,0,0,1-.506-2.565,4.859,4.859,0,0,1,.586-2.469A4.5,4.5,0,0,1,498.234,214a7.088,7.088,0,0,1,2.248-.871,12.626,12.626,0,0,1,2.628-.268,15.065,15.065,0,0,1,1.631.079,7.352,7.352,0,0,1,1.156.206V212.7a2.613,2.613,0,0,0-.728-1.931,3.529,3.529,0,0,0-2.533-.728,16.169,16.169,0,0,0-2.375.173,10.191,10.191,0,0,0-2.027.491l-.6-3.8c.274-.084.618-.174,1.029-.269s.86-.179,1.346-.253,1-.137,1.536-.19S502.625,206.114,503.174,206.114Zm.379,13.806q.7,0,1.329-.032a9.115,9.115,0,0,0,1.013-.094v-3.578q-.284-.063-.855-.127a9.33,9.33,0,0,0-2.3.016,3.268,3.268,0,0,0-1.029.3,1.758,1.758,0,0,0-.7.6,1.67,1.67,0,0,0-.254.95,1.616,1.616,0,0,0,.744,1.536A4.106,4.106,0,0,0,503.553,219.92Z" transform="translate(-231.979 -180.998)" fill="#fff"/>
    <path id="Trazado_121" data-name="Trazado 121" d="M537.984,212.8V188.23H542.7v7.979a9.856,9.856,0,0,1,1.219-.3,7.7,7.7,0,0,1,1.44-.142,8.924,8.924,0,0,1,3.372.555,5.238,5.238,0,0,1,2.153,1.567,6.065,6.065,0,0,1,1.14,2.406,13.4,13.4,0,0,1,.332,3.1v9.4h-4.717v-8.834a6.508,6.508,0,0,0-.586-3.229,2.344,2.344,0,0,0-2.169-.951,6.039,6.039,0,0,0-1.187.112q-.555.111-1,.237V212.8Z" transform="translate(-256.376 -170.585)" fill="#fff"/>
    <path id="Trazado_122" data-name="Trazado 122" d="M595.072,214.858a10.824,10.824,0,0,1-.57,3.594,7.81,7.81,0,0,1-1.647,2.786,7.413,7.413,0,0,1-2.581,1.789,8.623,8.623,0,0,1-3.372.632,8.531,8.531,0,0,1-3.341-.633,7.405,7.405,0,0,1-2.58-1.789,8.164,8.164,0,0,1-1.678-2.787,10.307,10.307,0,0,1-.6-3.593,9.942,9.942,0,0,1,.618-3.578,8.111,8.111,0,0,1,1.709-2.754,7.689,7.689,0,0,1,2.6-1.773,8.869,8.869,0,0,1,6.586,0,7.517,7.517,0,0,1,2.58,1.773,8.049,8.049,0,0,1,1.678,2.755A10.179,10.179,0,0,1,595.072,214.858Zm-4.813,0a5.931,5.931,0,0,0-.871-3.436,2.848,2.848,0,0,0-2.485-1.251,2.887,2.887,0,0,0-2.5,1.251,5.852,5.852,0,0,0-.886,3.435,6.007,6.007,0,0,0,.886,3.467,2.865,2.865,0,0,0,2.5,1.283,2.827,2.827,0,0,0,2.485-1.283A6.078,6.078,0,0,0,590.259,214.858Z" transform="translate(-280.083 -181)" fill="#fff"/>
    <path id="Trazado_123" data-name="Trazado 123" d="M634.232,210.876q-.634-.158-1.488-.333a9.223,9.223,0,0,0-1.836-.174,8.62,8.62,0,0,0-1.06.079,6.25,6.25,0,0,0-.934.174v12.729h-4.718V207.583a28.257,28.257,0,0,1,2.992-.838,17.252,17.252,0,0,1,3.847-.4q.38,0,.918.048t1.077.127q.538.08,1.077.19a5.074,5.074,0,0,1,.918.269Z" transform="translate(-306.57 -181.134)" fill="#fff"/>
    <path id="Trazado_124" data-name="Trazado 124" d="M660.821,191.781a2.588,2.588,0,0,1-.839,2.042,3,3,0,0,1-3.958,0,2.905,2.905,0,0,1,0-4.084,3,3,0,0,1,3.958,0A2.59,2.59,0,0,1,660.821,191.781Zm-.444,21.467h-4.717V196.593h4.718Z" transform="translate(-324.614 -171.03)" fill="#fff"/>
    <path id="Trazado_125" data-name="Trazado 125" d="M681.016,206.123a10.923,10.923,0,0,1,3.482.475,5.418,5.418,0,0,1,2.233,1.362,5.018,5.018,0,0,1,1.186,2.153,10.642,10.642,0,0,1,.348,2.818v9.815q-1.014.222-2.818.522a27.073,27.073,0,0,1-4.369.3,13.869,13.869,0,0,1-2.929-.285,6.343,6.343,0,0,1-2.264-.935,4.266,4.266,0,0,1-1.457-1.693,5.848,5.848,0,0,1-.506-2.565,4.862,4.862,0,0,1,.586-2.47,4.507,4.507,0,0,1,1.568-1.615,7.088,7.088,0,0,1,2.248-.87,12.618,12.618,0,0,1,2.628-.269,14.957,14.957,0,0,1,1.63.079,7.359,7.359,0,0,1,1.156.206v-.443a2.611,2.611,0,0,0-.728-1.931,3.528,3.528,0,0,0-2.533-.728,16.167,16.167,0,0,0-2.375.174,10.218,10.218,0,0,0-2.027.49l-.6-3.8c.274-.084.617-.174,1.029-.269s.86-.179,1.346-.254,1-.137,1.536-.19S680.467,206.123,681.016,206.123Zm.379,13.805q.7,0,1.33-.032a9.109,9.109,0,0,0,1.013-.095v-3.578q-.285-.063-.855-.127a9.536,9.536,0,0,0-1.045-.064,9.385,9.385,0,0,0-1.251.079,3.273,3.273,0,0,0-1.029.3,1.769,1.769,0,0,0-.7.6,1.673,1.673,0,0,0-.253.95,1.616,1.616,0,0,0,.743,1.535A4.108,4.108,0,0,0,681.4,219.928Z" transform="translate(-335.523 -181.003)" fill="#fff"/>
    <text id="salud_a_tu_puerta" data-name="salud a tu puerta" transform="translate(251 52)" fill="#fff" font-size="6" font-family="Helvetica" letter-spacing="0.1em"><tspan x="-34.818" y="0">SALUD A TU PUERTA</tspan></text>
  </g>
</svg>
