<svg xmlns="http://www.w3.org/2000/svg" width="150" height="37.332" viewBox="0 0 150 37.332">
    <g id="Grupo_245" data-name="Grupo 245" transform="translate(-188 -15)">
        <g id="Grupo_1" data-name="Grupo 1" transform="translate(188 24.622)">
            <circle id="Elipse_1" data-name="Elipse 1" cx="4.688" cy="4.688" r="4.688" transform="translate(9.718 3.239)" fill="#ffffff"/>
            <path id="Trazado_1" data-name="Trazado 1" d="M314.793,218.763c-.589-4.121-5.473-5.854-7.014-10.108a6.782,6.782,0,0,1-.215-.657q-.013-.049-.025-.1a8.143,8.143,0,0,1-.218-1.905,6.956,6.956,0,0,1,6.94-6.774c.042,0,.083.006.124.006-.528-.249-5.182-2.313-9.525.025a9.9,9.9,0,0,0-4.434,12.239c2.129,5.321,10.11,12.238,9.755,14.367C310.182,225.858,315.5,223.73,314.793,218.763Z" transform="translate(-299.76 -198.149)" fill="#ffffff"/>
        </g>
        <g id="Grupo_2" data-name="Grupo 2" transform="translate(216.133 27.422)">
            <path id="Trazado_2" data-name="Trazado 2" d="M381.441,217.823a4.13,4.13,0,0,0,1.615-.223.86.86,0,0,0,.473-.863,1.054,1.054,0,0,0-.612-.877,11.726,11.726,0,0,0-1.864-.85,18.991,18.991,0,0,1-1.767-.751,5.19,5.19,0,0,1-1.349-.932,3.768,3.768,0,0,1-.863-1.294,4.786,4.786,0,0,1-.306-1.81,3.912,3.912,0,0,1,1.531-3.256,6.661,6.661,0,0,1,4.2-1.2,13.494,13.494,0,0,1,2.56.237,12,12,0,0,1,1.948.515l-.725,3.228a15.269,15.269,0,0,0-1.572-.445,8.565,8.565,0,0,0-1.906-.195q-1.948,0-1.948,1.085a1.118,1.118,0,0,0,.084.445.944.944,0,0,0,.334.375,4.545,4.545,0,0,0,.682.392q.431.211,1.1.463a17.017,17.017,0,0,1,2.254,1,5.392,5.392,0,0,1,1.406,1.06,3.283,3.283,0,0,1,.724,1.264,5.586,5.586,0,0,1,.208,1.61,3.71,3.71,0,0,1-1.628,3.277,8.12,8.12,0,0,1-4.606,1.111,13,13,0,0,1-5.037-.891l.7-3.367a13.607,13.607,0,0,0,2.171.654A10.583,10.583,0,0,0,381.441,217.823Z" transform="translate(-376.376 -205.772)" fill="#ffffff"/>
            <path id="Trazado_3" data-name="Trazado 3" d="M419.7,206a9.6,9.6,0,0,1,3.061.417,4.768,4.768,0,0,1,1.962,1.2,4.406,4.406,0,0,1,1.043,1.893,9.337,9.337,0,0,1,.306,2.477v8.627q-.891.2-2.477.459a23.841,23.841,0,0,1-3.84.264,12.194,12.194,0,0,1-2.574-.25,5.577,5.577,0,0,1-1.99-.821,3.747,3.747,0,0,1-1.28-1.489,5.127,5.127,0,0,1-.445-2.254,4.268,4.268,0,0,1,.515-2.171,3.962,3.962,0,0,1,1.377-1.419,6.222,6.222,0,0,1,1.976-.765,11.1,11.1,0,0,1,2.31-.236,13.159,13.159,0,0,1,1.434.069,6.469,6.469,0,0,1,1.016.181v-.39a2.3,2.3,0,0,0-.64-1.7,3.1,3.1,0,0,0-2.226-.64,14.214,14.214,0,0,0-2.087.153,8.96,8.96,0,0,0-1.781.431l-.528-3.34c.241-.074.543-.153.9-.236s.756-.158,1.183-.223.877-.12,1.35-.167S419.212,206,419.7,206Zm.333,12.134q.611,0,1.168-.028a8.014,8.014,0,0,0,.891-.083v-3.145q-.251-.056-.752-.111a8.371,8.371,0,0,0-.918-.056,8.242,8.242,0,0,0-1.1.07,2.872,2.872,0,0,0-.9.264,1.549,1.549,0,0,0-.612.529,1.47,1.47,0,0,0-.223.835,1.419,1.419,0,0,0,.653,1.349A3.608,3.608,0,0,0,420.028,218.133Z" transform="translate(-399.843 -205.916)" fill="#ffffff"/>
            <path id="Trazado_4" data-name="Trazado 4" d="M455.365,206.988a23.12,23.12,0,0,1,2.727-.57,22.411,22.411,0,0,1,3.507-.265,8.55,8.55,0,0,1,3.1.487,4.664,4.664,0,0,1,1.962,1.378,5.385,5.385,0,0,1,1.03,2.115,11.253,11.253,0,0,1,.306,2.727v8.266h-4.147v-7.765a5.589,5.589,0,0,0-.529-2.838,2.157,2.157,0,0,0-1.976-.835q-.446,0-.946.042t-.891.1v11.3h-4.146Z" transform="translate(-426.36 -206.013)" fill="#ffffff"/>
            <path id="Trazado_5" data-name="Trazado 5" d="M502.316,206.114a9.6,9.6,0,0,1,3.061.418,4.755,4.755,0,0,1,1.962,1.2,4.406,4.406,0,0,1,1.043,1.892,9.334,9.334,0,0,1,.306,2.477v8.627q-.891.2-2.477.459a23.789,23.789,0,0,1-3.84.265,12.164,12.164,0,0,1-2.574-.251,5.588,5.588,0,0,1-1.99-.821,3.757,3.757,0,0,1-1.28-1.489,5.139,5.139,0,0,1-.445-2.255,4.271,4.271,0,0,1,.515-2.171,3.959,3.959,0,0,1,1.378-1.42,6.229,6.229,0,0,1,1.976-.765,11.1,11.1,0,0,1,2.31-.236,13.25,13.25,0,0,1,1.433.069,6.467,6.467,0,0,1,1.016.181v-.39a2.3,2.3,0,0,0-.64-1.7,3.1,3.1,0,0,0-2.226-.64,14.212,14.212,0,0,0-2.087.152,8.958,8.958,0,0,0-1.781.432l-.528-3.34c.241-.074.543-.153.9-.236s.756-.158,1.183-.223.877-.12,1.35-.167S501.833,206.114,502.316,206.114Zm.333,12.135q.611,0,1.168-.028a8.015,8.015,0,0,0,.891-.083v-3.145q-.25-.056-.751-.111a8.2,8.2,0,0,0-2.018.014,2.874,2.874,0,0,0-.9.264,1.545,1.545,0,0,0-.612.529,1.468,1.468,0,0,0-.223.835,1.42,1.42,0,0,0,.654,1.35A3.609,3.609,0,0,0,502.649,218.249Z" transform="translate(-452.125 -205.988)" fill="#ffffff"/>
        </g>
        <path id="Trazado_6" data-name="Trazado 6" d="M319.133,172.012a7.322,7.322,0,0,0-7.729,4.371,4.876,4.876,0,0,0-6.4-.908,7.473,7.473,0,0,0,6.756,4.4,7.508,7.508,0,0,0,.838-.05,7.392,7.392,0,0,0,6.555-7.342C319.157,172.324,319.143,172.169,319.133,172.012Z" transform="translate(-115.081 -156.944)" fill="#ffffff"/>
        <g id="Grupo_4" data-name="Grupo 4" transform="translate(275.476 20.98)">
            <g id="Grupo_3" data-name="Grupo 3" transform="translate(0 0)">
                <path id="Trazado_7" data-name="Trazado 7" d="M537.984,209.826v-21.6h4.146v7.013a8.661,8.661,0,0,1,1.071-.265,6.767,6.767,0,0,1,1.266-.125,7.842,7.842,0,0,1,2.964.488,4.6,4.6,0,0,1,1.892,1.378,5.33,5.33,0,0,1,1,2.115,11.768,11.768,0,0,1,.292,2.727v8.266h-4.146v-7.765a5.722,5.722,0,0,0-.515-2.838,2.061,2.061,0,0,0-1.906-.836,5.31,5.31,0,0,0-1.044.1q-.487.1-.877.209v11.132Z" transform="translate(-537.984 -188.23)" fill="#ffffff"/>
                <path id="Trazado_8" data-name="Trazado 8" d="M593.09,213.8a9.511,9.511,0,0,1-.5,3.159,6.863,6.863,0,0,1-1.448,2.449,6.515,6.515,0,0,1-2.268,1.573,7.579,7.579,0,0,1-2.964.556,7.5,7.5,0,0,1-2.936-.556,6.506,6.506,0,0,1-2.268-1.573,7.175,7.175,0,0,1-1.475-2.45,9.06,9.06,0,0,1-.528-3.158,8.739,8.739,0,0,1,.543-3.145,7.133,7.133,0,0,1,1.5-2.421,6.76,6.76,0,0,1,2.283-1.558,7.8,7.8,0,0,1,5.789,0,6.607,6.607,0,0,1,2.268,1.558,7.072,7.072,0,0,1,1.475,2.422A8.945,8.945,0,0,1,593.09,213.8Zm-4.231,0a5.212,5.212,0,0,0-.765-3.02,2.5,2.5,0,0,0-2.184-1.1,2.538,2.538,0,0,0-2.2,1.1,5.143,5.143,0,0,0-.779,3.019,5.28,5.28,0,0,0,.779,3.047,2.518,2.518,0,0,0,2.2,1.128,2.484,2.484,0,0,0,2.184-1.128A5.341,5.341,0,0,0,588.86,213.8Z" transform="translate(-563.75 -199.55)" fill="#ffffff"/>
                <path id="Trazado_9" data-name="Trazado 9" d="M633.016,210.328q-.557-.139-1.308-.292a8.109,8.109,0,0,0-1.614-.153,7.576,7.576,0,0,0-.932.069,5.492,5.492,0,0,0-.821.153v11.188h-4.147V207.433a24.843,24.843,0,0,1,2.63-.737,15.164,15.164,0,0,1,3.381-.348q.334,0,.807.042t.946.111q.473.07.946.167a4.46,4.46,0,0,1,.807.236Z" transform="translate(-592.538 -199.695)" fill="#ffffff"/>
                <path id="Trazado_10" data-name="Trazado 10" d="M660.138,191.443a2.275,2.275,0,0,1-.737,1.794,2.639,2.639,0,0,1-3.479,0,2.553,2.553,0,0,1,0-3.59,2.64,2.64,0,0,1,3.479,0A2.277,2.277,0,0,1,660.138,191.443Zm-.39,18.869H655.6V195.673h4.147Z" transform="translate(-612.149 -188.713)" fill="#ffffff"/>
                <path id="Trazado_11" data-name="Trazado 11" d="M680.158,206.123a9.6,9.6,0,0,1,3.061.417,4.762,4.762,0,0,1,1.962,1.2,4.411,4.411,0,0,1,1.043,1.893,9.352,9.352,0,0,1,.306,2.477v8.627q-.891.2-2.477.459a23.8,23.8,0,0,1-3.84.264,12.193,12.193,0,0,1-2.574-.25,5.575,5.575,0,0,1-1.99-.822,3.75,3.75,0,0,1-1.281-1.488,5.141,5.141,0,0,1-.445-2.255,4.273,4.273,0,0,1,.515-2.171,3.96,3.96,0,0,1,1.378-1.419,6.229,6.229,0,0,1,1.976-.765,11.091,11.091,0,0,1,2.31-.236,13.147,13.147,0,0,1,1.433.069,6.469,6.469,0,0,1,1.016.181v-.39a2.3,2.3,0,0,0-.64-1.7,3.1,3.1,0,0,0-2.226-.64,14.206,14.206,0,0,0-2.087.153,8.978,8.978,0,0,0-1.781.431l-.528-3.34c.24-.074.543-.153.9-.236s.756-.158,1.183-.223.877-.12,1.35-.167S679.675,206.123,680.158,206.123Zm.333,12.134q.612,0,1.169-.028a8.017,8.017,0,0,0,.891-.083V215q-.25-.056-.751-.111a8.377,8.377,0,0,0-.919-.056,8.249,8.249,0,0,0-1.1.07,2.876,2.876,0,0,0-.9.264,1.554,1.554,0,0,0-.612.529,1.47,1.47,0,0,0-.223.835,1.42,1.42,0,0,0,.653,1.349A3.611,3.611,0,0,0,680.49,218.257Z" transform="translate(-624.006 -199.553)" fill="#ffffff"/>
            </g>
        </g>
    </g>
</svg>
