<svg xmlns="http://www.w3.org/2000/svg" width="13.36" height="12.837" viewBox="0 0 13.36 12.837">
  <path id="star" d="M12.07,6.4a.885.885,0,0,0-.491-1.509L8.592,4.461A.39.39,0,0,1,8.3,4.247L6.962,1.54a.885.885,0,0,0-1.587,0L4.04,4.247a.391.391,0,0,1-.294.214L.758,4.895A.885.885,0,0,0,.268,6.4L2.429,8.511a.391.391,0,0,1,.113.346l-.51,2.975a.885.885,0,0,0,1.284.933l2.671-1.4a.391.391,0,0,1,.364,0l2.672,1.4a.885.885,0,0,0,1.284-.933L9.8,8.857a.391.391,0,0,1,.113-.346ZM9.309,8.94l.51,2.975a.391.391,0,0,1-.567.412l-2.672-1.4a.885.885,0,0,0-.824,0l-2.671,1.4a.391.391,0,0,1-.567-.412l.51-2.975a.885.885,0,0,0-.254-.783L.613,6.05a.391.391,0,0,1,.216-.667l2.987-.434a.884.884,0,0,0,.666-.484L5.818,1.759a.391.391,0,0,1,.7,0L7.855,4.466a.883.883,0,0,0,.666.484l2.987.434a.391.391,0,0,1,.216.667L9.563,8.157A.884.884,0,0,0,9.309,8.94Z" transform="translate(0.511 -0.547)" fill="#fff" stroke="#fff" stroke-width="1"/>
</svg>
