<svg id="Grupo_9442" data-name="Grupo 9442" xmlns="http://www.w3.org/2000/svg" width="25.61" height="25.61" viewBox="0 0 25.61 25.61">
  <g id="Grupo_8994" data-name="Grupo 8994" transform="translate(0 0)">
    <path id="Trazado_5015" data-name="Trazado 5015" d="M205.671,167.732c0,.636-.412.937-1.135.937h-1.38v-.636h1.38a.422.422,0,0,0,.278-.067.278.278,0,0,0,.089-.19.29.29,0,0,0-.089-.212.353.353,0,0,0-.256-.067c-.657-.022-1.492.022-1.492-.926a.9.9,0,0,1,1.024-.893h1.425v.636H204.2a.464.464,0,0,0-.278.045.314.314,0,0,0-.111.234.222.222,0,0,0,.145.212,1.125,1.125,0,0,0,.279.045h.389a1.265,1.265,0,0,1,.835.235.977.977,0,0,1,.211.647m-3.005-.647a1.265,1.265,0,0,0-.835-.235h-.39a1.114,1.114,0,0,1-.278-.045.222.222,0,0,1-.145-.212.255.255,0,0,1,.111-.234.464.464,0,0,1,.278-.045h1.313v-.636H201.3c-.768,0-1.024.469-1.024.893,0,.948.835.9,1.492.926a.353.353,0,0,1,.256.067.291.291,0,0,1,.089.212.28.28,0,0,1-.089.19.467.467,0,0,1-.278.067h-1.38v.636h1.38c.723,0,1.135-.3,1.135-.937a.979.979,0,0,0-.211-.647m-2.738.971h-1.681v-.6h1.647v-.6h-1.647V166.3h1.681v-.625h-2.382v2.991h2.382Zm-3.15-2.232a1.864,1.864,0,0,0-.88-.145h-1.636v2.991h.724v-1.093h.768c.256,0,.4.022.512.134a.986.986,0,0,1,.122.6v.357h.712v-.581a.932.932,0,0,0-.111-.547.739.739,0,0,0-.367-.257.819.819,0,0,0,.512-.792.681.681,0,0,0-.356-.67m-4.051-.145h-2.281l-.924.982-.868-.982H185.77v2.991h2.838l.913-.982.879.982h1.38v-1h.9c.612,0,1.236-.167,1.236-1,0-.815-.635-.982-1.191-.982m3.473,1.239a.859.859,0,0,1-.345.045l-.868.022V166.3h.868a.666.666,0,0,1,.345.056.271.271,0,0,1,.145.257.359.359,0,0,1-.145.3m-3.473.145h-.946V166.3h.946c.256,0,.423.1.423.357a.381.381,0,0,1-.423.4m-2.749.111,1.1-1.172v2.41Zm-1.736.882h-1.769v-.6h1.58v-.6h-1.58V166.3h1.792l.791.87Zm15.448-4.542h-1.024l-1.347-2.243v2.243h-1.447l-.279-.658H198.1l-.278.658h-.835a1.532,1.532,0,0,1-1.046-.335,1.951,1.951,0,0,1,.022-2.31,1.456,1.456,0,0,1,1.091-.346h.679v.647h-.679a.776.776,0,0,0-.557.167.959.959,0,0,0-.189.681,1.076,1.076,0,0,0,.189.714.735.735,0,0,0,.49.145h.323l1.024-2.355h1.057l1.2,2.823v-2.823h1.1l1.258,2.076v-2.076h.735Zm-8.47-2.991H194.5v2.991h.723Zm-1.513.134a1.652,1.652,0,0,0-.857-.134h-1.636v2.991h.7v-1.083h.768a.775.775,0,0,1,.535.123.967.967,0,0,1,.1.58v.38h.734v-.591a.771.771,0,0,0-.133-.536.872.872,0,0,0-.345-.256.846.846,0,0,0,.512-.792.724.724,0,0,0-.379-.681M190.7,162.9h-1.67v-.6h1.647v-.614h-1.647v-.536h1.67v-.625h-2.393v2.991H190.7Zm-2.928-2.377h-1.168l-.88,2.031-.935-2.031h-1.146v2.823l-1.225-2.823h-1.057l-1.28,2.991h.768l.267-.658h1.5l.267.658h1.458V161.17l1.046,2.343H186l1.047-2.343v2.343h.723Zm11.564,1.7-.49-1.183-.49,1.183Zm-6.188-.48a.621.621,0,0,1-.356.067h-.879v-.658h.879a.894.894,0,0,1,.356.045.3.3,0,0,1,.134.279.27.27,0,0,1-.134.268m-11.775.48.5-1.183.489,1.183Zm24.118-11.081H180.061v10.78l.868-1.986h1.859l.256.491v-.491h2.17l.49,1.06.478-1.06h6.923a1.212,1.212,0,0,1,.812.235v-.235h1.9v.235a2.419,2.419,0,0,1,1.191-.235h2.749l.256.491v-.491h2.025l.3.491v-.491h1.981v4.185h-2l-.39-.636v.636h-2.493l-.278-.681h-.612l-.278.681h-1.3a2.455,2.455,0,0,1-1.146-.257v.257h-3.094v-.96c0-.134-.022-.156-.111-.156h-.1v1.116h-5.977v-.536l-.211.536h-1.258l-.211-.514v.514h-2.415l-.256-.681h-.612l-.279.681h-1.235v12.631h25.432v-7.666a2.639,2.639,0,0,1-1.035.19H202.6v-.256a1.675,1.675,0,0,1-.957.256H195.8v-.959c0-.134-.023-.134-.134-.134h-.1v1.093h-1.926v-1.138a2.251,2.251,0,0,1-1,.156h-.211v.982h-2.348l-.556-.647-.612.647h-3.773v-4.2h3.84l.546.647.6-.647H192.7a1.609,1.609,0,0,1,1,.257v-.257h2.3a1.839,1.839,0,0,1,.979.257v-.257h3.472v.257a1.466,1.466,0,0,1,.879-.257h1.937v.257a1.578,1.578,0,0,1,.9-.257h1.313Z" transform="translate(-180.061 -151.138)" fill="#008fe3" fill-rule="evenodd"/>
  </g>
</svg>
